x,y
72,43
75,65
11,47
26,42
63,67
73,30
22,43
20,37
31,73
90,11
92,11
29,2
17,18
49,54
32,36
11,97
46,72
42,29
59,31
38,42
47,38
61,9
20,1
1,46
31,45
71,28
3,6
6,21
94,49
35,94
26,25
20,37
95,15
59,9
23,21
38,73
90,30
45,50
76,22
38,72
40,28
65,92
17,26
33,19
39,0
75,33
63,14
88,23
40,82
62,13
87,28
13,86
9,69
67,91
70,98
5,79
89,61
27,98
34,87
67,51
19,43
12,1
34,46
57,35
22,61
55,98
65,64
23,21
98,51
91,14
24,92
34,60
39,36
2,39
12,63
55,27
62,11
41,4
49,11
86,86
63,12
20,17
22,15
12,89
89,18
41,40
53,17
7,91
43,62
77,46
39,70
16,15
13,68
65,94
53,3
60,15
8,61
44,10
70,96
88,0
