x,y
7,59
53,93
43,33
64,12
62,65
46,31
16,1
68,52
90,83
87,52
85,61
2,28
45,4
38,31
94,78
61,78
46,33
59,30
9,62
24,92
49,12
3,22
81,95
9,71
46,68
94,14
37,13
62,83
13,39
37,80
98,3
6,55
95,59
17,86
59,7
96,64
20,6
46,73
17,47
44,56
89,4
33,17
73,99
64,30
99,45
29,39
30,89
31,1
65,83
13,34
69,5
38,20
28,23
73,55
22,5
18,34
43,44
3,92
18,81
2,92
19,96
3,30
72,63
53,75
54,68
84,18
49,64
39,37
20,41
67,87
59,50
5,23
57,89
75,57
8,58
78,1
36,83
28,14
99,89
50,40
93,38
77,79
53,34
42,68
28,25
14,76
73,80
73,32
48,39
25,49
28,57
47,88
56,5
40,100
14,60
69,93
78,77
83,99
41,86
76,60
