x,y
58,100
52,30
54,61
89,87
42,64
40,83
74,61
50,53
65,73
87,38
72,26
62,42
29,7
98,50
66,76
43,57
87,36
49,59
60,5
57,74
61,42
50,90
83,25
4,85
60,41
47,54
40,77
98,92
20,13
45,31
40,10
13,19
84,39
87,37
82,34
97,36
91,97
84,48
1,64
24,64
19,45
81,81
0,43
94,84
93,28
44,42
1,72
6,10
77,50
20,11
10,92
84,69
50,20
49,81
7,33
13,58
39,63
0,29
46,55
64,30
49,1
89,69
52,2
29,4
84,54
40,12
49,18
70,24
22,3
87,41
48,86
18,22
38,32
26,81
96,86
56,64
32,14
94,23
61,39
40,84
40,86
72,98
92,35
68,8
29,86
98,65
86,24
62,78
52,83
26,12
42,49
6,48
38,27
41,71
58,63
44,68
12,44
95,32
76,88
82,61
