x,y
21,4
4,92
43,90
6,16
32,56
22,5
30,92
80,68
13,59
27,19
35,64
19,94
42,96
29,27
100,52
20,60
89,11
61,80
26,60
6,94
88,17
73,69
84,61
59,49
2,92
60,7
36,7
84,79
87,8
15,82
86,50
67,3
20,93
49,14
14,3
59,2
49,58
45,67
46,6
73,53
8,60
86,59
22,1
46,27
17,0
67,3
31,4
67,88
37,21
81,95
56,91
3,91
61,19
85,17
47,69
70,26
52,91
0,33
85,72
63,38
100,38
79,25
0,89
99,6
54,96
81,88
22,64
44,97
61,13
32,51
73,1
46,5
8,62
16,74
94,89
96,27
97,61
21,75
17,81
28,20
38,2
51,80
1,95
43,83
88,4
48,85
26,72
55,72
44,53
82,20
16,89
76,4
59,4
8,10
88,30
62,87
12,4
25,83
66,5
52,33
