x,y
100,42
67,27
31,65
41,48
51,45
10,50
7,42
89,7
93,17
91,58
10,59
78,61
72,35
3,21
49,100
94,26
49,54
49,30
100,12
78,2
62,40
40,41
65,43
66,25
69,57
73,78
65,8
55,88
36,82
92,14
100,98
60,45
52,52
28,100
10,66
55,63
61,68
63,3
74,35
15,53
38,3
3,69
17,23
23,36
97,47
38,36
1,40
52,18
76,16
52,4
84,38
7,81
53,71
72,51
78,5
1,11
95,86
74,83
82,25
81,73
82,20
94,74
21,94
4,57
45,76
37,38
30,62
13,68
8,46
23,55
81,97
29,23
11,59
84,22
2,27
17,33
88,91
72,100
51,85
77,16
59,12
64,42
67,89
17,94
54,64
41,9
68,3
87,36
58,58
83,0
97,26
85,66
25,38
58,11
79,33
56,28
42,54
69,17
53,65
15,58
